{
    "commentary": "PE Oraculi ",
    "id": "pe-oraculi-module",
    "title": "Наставник",
    "description": "<p>Образовательная платформа для поддержки онлайн и оффлайн образовательных проектов.</p><p>Включает в себя: <ul><li>Факультеты</li><li>Курсы</li><li>Предметные области</li><li>Классы</li><li>Уроки и Лекции</li><li>Образовательные события (Олимпиады, конкурсы)</li><li>Тесты</li></ul></p><p>Синхронизован с сервисами <b>PE-Fest</b> <i>(образовательные фестивали и конкурсы)</i> и <b>PE-Jitsi</b> <i>(Видеотрансляции и переговорные комнаты)</i></p><p>Серверная поддержка реализована на платформе Wordpress.</p>",
    "preority": 1,
    "version": "0.1.0",
    "author": "genag1@list.ru",
    "documentation": "",
    "git": "https://gitlab.com/genagl/pe-oraculi-module",
    "views": {
        "TutorFacultets": {
            "title": "Лента Факультетов",
            "description": "",
            "module": "pe-oraculi-module"
        },
        "TutorFacultet": {
            "title": "Страница Факультета",
            "description": "",
            "module": "pe-oraculi-module"
        },
        "TutorCourses": {
            "title": "Лента Курсов",
            "description": " ",
            "module": "pe-oraculi-module"
        },
        "TutorCourse": {
            "title": "Страница Курса",
            "description": " ",
            "module": "pe-oraculi-module"
        },
        "TutorCourseLessons": {
            "title": "Лента Уроков. Фильтрация по Курсу.",
            "description": " ",
            "module": "pe-oraculi-module"
        },
        "TutorArticlesFavorite": {
            "title": "Страница любимых Уроков Пользователя",
            "description": "",
            "module": "pe-oraculi-module"
        },
        "TutorClassLessons": {
            "title": "Лента Уроков. Фильтрация по Классу.",
            "description": " ",
            "module": "pe-oraculi-module"
        },
        "TutorEvent": {
            "title": "Страница События",
            "description": "",
            "module": "pe-oraculi-module"
        },
        "TutorLesson": {
            "title": "Страница Урока ",
            "description": "",
            "module": "pe-oraculi-module"
        },
        "TutorRemoteAccountAdmin": {
            "title": "Страница администрирования аккаунтов подключения сторонних сервисов. ",
            "description": "",
            "module": "pe-oraculi-module"
        },
        "TutorRemoteAdmin": {
            "title": "Страница администрирования сторонних сервисов. ",
            "description": "",
            "module": "pe-oraculi-module"
        },
        "TutorResult": {
            "title": "Страница Результата. ",
            "description": "",
            "module": "pe-oraculi-module"
        },
        "TutorTest": {
            "title": "Страница Теста ",
            "description": "",
            "module": "pe-oraculi-module"
        },
        "TutorTests": {
            "title": "Лента Тестов ",
            "description": "",
            "module": "pe-oraculi-module"
        },
        "TutorThemeLessons": {
            "title": "Дета Уроков. Фильтрация по Разделу знаний. ",
            "description": "",
            "module": "pe-oraculi-module"
        },
        "TutorThemes": {
            "title": "Лента Разделов знаний. ",
            "description": "",
            "module": "pe-oraculi-module"
        },
        "TutorUserTestResults": {
            "title": "Страница резульаьов прохождения Тестов текущим Пользователем. ",
            "description": "",
            "module": "pe-oraculi-module"
        }
    },
    "widgets": {
        "CourseFilesWidget": {
            "title": "CourseFilesWidget",
            "description": " ",
            "preority": 1,
            "area": [],
            "module": "pe-oraculi-module"
        },
        "EventCalendar": {
            "title": "EventCalendar",
            "description": "",
            "preority": 1,
            "area": [],
            "module": "pe-oraculi-module"
        },
        "EventMembersWidget": {
            "title": "EventMembersWidget",
            "description": "",
            "preority": 1,
            "area": [],
            "module": "pe-oraculi-module"
        },
        "EventRequestLabelWidget": {
            "title": "EventRequestLabelWidget",
            "description": "",
            "preority": 1,
            "area": [],
            "module": "pe-oraculi-module"
        },
        "EventsRequestLabelWidget": {
            "title": "EventsRequestLabelWidget",
            "description": "",
            "preority": 1,
            "area": [],
            "module": "pe-oraculi-module"
        },
        "PriceLabel": {
            "title": "PriceLabel",
            "description": "",
            "preority": 1,
            "area": [],
            "module": "pe-oraculi-module"
        },
        "QuestionHiddenLabelWidget": {
            "title": "QuestionHiddenLabelWidget",
            "description": "",
            "preority": 1,
            "area": [],
            "module": "pe-oraculi-module"
        },
        "TestCategoryForm": {
            "title": "TestCategoryForm",
            "description": "",
            "preority": 1,
            "area": [],
            "module": "pe-oraculi-module"
        },
        "TutorLikerWidget": {
            "title": "TutorLikerWidget",
            "description": "",
            "preority": 1,
            "area": [],
            "module": "pe-oraculi-module"
        },
        "TutorPagiWidget": {
            "title": "TutorPagiWidget",
            "description": "",
            "preority": 1,
            "area": [],
            "module": "pe-oraculi-module"
        },
        "TutorSubCoursesWidget": {
            "title": "TutorSubCoursesWidget",
            "description": "",
            "preority": 1,
            "area": [],
            "module": "pe-oraculi-module"
        }
    },
    "extentions": {
        "CourseTypeSelector": {
            "title": "CourseTypeSelector",
            "description": "",
            "preority": 1,
            "area": [
                {
                    "id": "landing-object"
                },
                {
                    "id": "single_course"
                },
                {
                    "id": "curent-course-content"
                },
                {
                    "id": "single-course-left-aside"
                },
                {
                    "id": "single-course-lessons-left-aside"
                },
                {
                    "id": "current-course-aside"
                }
            ],
            "module": "pe-oraculi-module"
        },
        "CurrentCourseTranslation": {
            "title": "CurrentCourseTranslation",
            "description": "",
            "preority": 1,
            "area": [
                {
                    "id": "single_course"
                },
                {
                    "id": "curent-course-content"
                },
                {
                    "id": "single-course-left-aside"
                },
                {
                    "id": "single-course-lessons-left-aside"
                },
                {
                    "id": "current-course-aside"
                }
            ],
            "module": "pe-oraculi-module"
        },
        "GotoCourseLessons": {
            "title": "GotoCourseLessons",
            "description": "",
            "preority": 1,
            "area": [
                {
                    "id": "single_course"
                },
                {
                    "id": "curent-course-content"
                },
                {
                    "id": "single-course-left-aside"
                },
                {
                    "id": "single-course-lessons-left-aside"
                },
                {
                    "id": "current-course-aside"
                }
            ],
            "module": "pe-oraculi-module"
        },
        "TutorCourseFreeLessonsWidget": {
            "title": "Links to free lessons of Course",
            "description": "",
            "preority": 1,
            "area": [
                {
                    "id": "single_course"
                },
                {
                    "id": "curent-course-content"
                },
                {
                    "id": "single-course-left-aside"
                },
                {
                    "id": "single-course-lessons-left-aside"
                },
                {
                    "id": "current-course-aside"
                }
            ],
            "module": "pe-oraculi-module"
        },
        "TutorCurContentWidget": {
            "title": "Content of current",
            "description": "",
            "preority": 1,
            "area": [
                {
                    "id": "single_course"
                },
                {
                    "id": "curent-course-content"
                },
                {
                    "id": "single-facultet-left-aside"
                },
                {
                    "id": "lesson-quote-footer"
                },
                {
                    "id": "single-result-left-aside"
                },
                {
                    "id": "single-course-left-aside"
                },
                {
                    "id": "single-course-lessons-left-aside"
                },
                {
                    "id": "single-article-left-aside"
                },
                {
                    "id": "single-article-right-aside"
                },
                {
                    "id": "single-event-left-aside"
                },
                {
                    "id": "single-test-left-aside"
                },
                {
                    "id": "translation-menu"
                },
                {
                    "id": "current-course-aside"
                },
                {
                    "id": "room"
                }
            ],
            "module": "pe-oraculi-module"
        },
        "TutorCurrentClassWidget": {
            "title": "Buttons List of Classes of current",
            "description": "",
            "preority": 1,
            "area": [
                {
                    "id": "lesson-quote-footer"
                },
                {
                    "id": "single-result-left-aside"
                },
                {
                    "id": "single-article-left-aside"
                },
                {
                    "id": "single-article-right-aside"
                },
                {
                    "id": "single-event-left-aside"
                },
                {
                    "id": "single-test-left-aside"
                }
            ],
            "module": "pe-oraculi-module"
        },
        "TutorCurrentCourseWidget": {
            "title": "Buttons List of Courses of current",
            "description": "",
            "preority": 1,
            "area": [
                {
                    "id": "lesson-quote-footer"
                },
                {
                    "id": "single-result-left-aside"
                },
                {
                    "id": "single-article-left-aside"
                },
                {
                    "id": "single-article-right-aside"
                },
                {
                    "id": "single-event-left-aside"
                },
                {
                    "id": "single-test-left-aside"
                }
            ],
            "module": "pe-oraculi-module"
        },
        "TutorCurrentFacultetWidget": {
            "title": "Buttons List of Facultets of current",
            "description": "",
            "preority": 1,
            "area": [
                {
                    "id": "single_course"
                },
                {
                    "id": "curent-course-content"
                },
                {
                    "id": "single-result-left-aside"
                },
                {
                    "id": "single-course-left-aside"
                },
                {
                    "id": "single-course-lessons-left-aside"
                },
                {
                    "id": "current-course-aside"
                }
            ],
            "module": "pe-oraculi-module"
        },
        "TutorCurrentThemeWidget": {
            "title": "Buttons List of Themes of current",
            "description": "",
            "preority": 1,
            "area": [
                {
                    "id": "lesson-quote-footer"
                },
                {
                    "id": "single-result-left-aside"
                },
                {
                    "id": "single-article-left-aside"
                },
                {
                    "id": "single-article-right-aside"
                },
                {
                    "id": "single-test-left-aside"
                }
            ],
            "module": "pe-oraculi-module"
        },
        "TutorFacultetResultsWidget": {
            "title": "Results carousel",
            "description": "",
            "preority": 1,
            "area": [
                {
                    "id": "single-facultet-left-aside"
                }
            ],
            "module": "pe-oraculi-module"
        },
        "TutorLessonFilesWidget": {
            "title": "Links to Lesson's includes",
            "description": "",
            "preority": 1,
            "area": [
                {
                    "id": "lesson-quote-footer"
                },
                {
                    "id": "single-article-left-aside"
                }
            ],
            "module": "pe-oraculi-module"
        }
    },
    "schema": {
        "Bio_Facultet": {
            "admin_data": {
                "filter": {
                    "parent": {
                        "type": "string",
                        "value": "0"
                    },
                    "order_by_meta": {
                        "type": "string",
                        "value": "order"
                    },
                    "order": {
                        "type": "string",
                        "value": "ASC"
                    }
                },
                "fill": [
                    "#B6D94C",
                    "#728C23"
                ]
            },
            "apollo_fields": {
                "id": {
                    "type": "string",
                    "title": "id",
                    "thread": 0,
                    "editable": 0
                },
                "post_title": {
                    "type": "string",
                    "title": "Заголовок",
                    "thread": 1,
                    "editable": 1
                },
                "post_content": {
                    "type": "text",
                    "title": "Подробное описание",
                    "thread": 0,
                    "editable": 1
                },
                "thumbnail_name": {
                    "type": "text",
                    "title": "Thumbnail name",
                    "thread": 0,
                    "editable": 1,
                    "hidden": 1
                },
                "thumbnail": {
                    "type": "media",
                    "title": "Thumbnail",
                    "thread": 1,
                    "editable": 1
                },
                "icon_name": {
                    "type": "text",
                    "title": "Icon name",
                    "thread": 0,
                    "editable": 1,
                    "hidden": 1
                },
                "icon": {
                    "type": "media",
                    "title": "Icon",
                    "thread": 1,
                    "editable": 1
                },
                "price": {
                    "type": "int",
                    "title": "Price",
                    "thread": 1,
                    "editable": 1
                },
                "order": {
                    "type": "int",
                    "title": "Порядковый номер",
                    "thread": 1,
                    "editable": 1
                }
            },
            "visibled_value": "post_title",
            "name": "Facultet",
            "module": "pe-oraculi-module"
        },
        "Bio_Course": {
            "admin_data": {
                "filter": {
                    "parent": {
                        "type": "string",
                        "value": "0"
                    },
                    "order_by_meta": {
                        "type": "string",
                        "value": "order"
                    },
                    "order": {
                        "type": "string",
                        "value": "ASC"
                    }
                },
                "fill": [
                    "#B6D94C",
                    "#728C23"
                ]
            },
            "apollo_fields": {
                "id": {
                    "type": "string",
                    "title": "id",
                    "thread": 0,
                    "editable": 0
                },
                "post_title": {
                    "type": "string",
                    "title": "Title",
                    "thread": 1,
                    "editable": 1
                },
                "post_content": {
                    "type": "text",
                    "title": "Content",
                    "thread": 0,
                    "editable": 1
                },
                "thumbnail_name": {
                    "type": "text",
                    "title": "Thumbnail name",
                    "thread": 0,
                    "editable": 1,
                    "hidden": 1
                },
                "thumbnail": {
                    "type": "media",
                    "title": "Thumbnail",
                    "thread": 1,
                    "editable": 1
                },
                "bio_facultet": {
                    "type": "external",
                    "kind": "type",
                    "component": "Bio_Facultet",
                    "external_fields": [
                        "id",
                        "post_title"
                    ],
                    "title": "Facultet",
                    "thread": 1,
                    "editable": 1,
                    "hidden": 0
                },
                "parent": {
                    "type": "external",
                    "kind": "type",
                    "component": "Bio_Course",
                    "external_fields": [
                        "id",
                        "post_title"
                    ],
                    "title": "Parent",
                    "thread": 1,
                    "editable": 0,
                    "hidden": 1
                },
                "children": {
                    "title": "Courses",
                    "type": "array",
                    "kind": "type",
                    "component": "Bio_Course",
                    "external_fields": [
                        "id",
                        "post_title",
                        "post_content",
                        "post_date",
                        "parent",
                        "thumbnail_name",
                        "thumbnail",
                        "children",
                        "price",
                        "order"
                    ],
                    "thread": 0,
                    "editable": 0,
                    "hidden": 1
                },
                "price": {
                    "type": "int",
                    "title": "Price",
                    "thread": 1,
                    "editable": 1
                },
                "order": {
                    "type": "int",
                    "title": "Order",
                    "thread": 1,
                    "editable": 1
                },
                "locked": {
                    "type": "boolean",
                    "title": "Locked",
                    "thread": 1,
                    "editable": 1,
                    "col_width": 80
                },
                "is_closed": {
                    "type": "boolean",
                    "title": "Hide request membership",
                    "thread": 1,
                    "editable": 1,
                    "col_width": 70
                },
                "is_member": {
                    "type": "boolean",
                    "title": "Current User is member",
                    "thread": 0,
                    "editable": 0,
                    "col_width": 80
                }
            },
            "visibled_value": "post_title",
            "name": "Course",
            "module": "pe-oraculi-module"
        },
        "Bio_Class": {
            "admin_data": {
                "filter": {
                    "parent": {
                        "type": "string",
                        "value": "0"
                    },
                    "order_by_meta": {
                        "type": "string",
                        "value": "order"
                    },
                    "order": {
                        "type": "string",
                        "value": "ASC"
                    }
                },
                "fill": [
                    "#426d8c",
                    "#223746"
                ]
            },
            "apollo_fields": {
                "id": {
                    "type": "string",
                    "title": "id",
                    "thread": 0,
                    "editable": 0
                },
                "post_title": {
                    "type": "string",
                    "title": "Title",
                    "thread": 1,
                    "editable": 1
                },
                "post_content": {
                    "type": "text",
                    "title": "Content",
                    "thread": 0,
                    "editable": 1
                },
                "order": {
                    "type": "int",
                    "title": "Order",
                    "thread": 1,
                    "editable": 1
                }
            },
            "visibled_value": "post_title",
            "name": "Class",
            "module": "pe-oraculi-module"
        },
        "Bio_Biology_Theme": {
            "admin_data": {
                "fill": [
                    "#bb5fac",
                    "#8a497f"
                ]
            },
            "apollo_fields": {
                "id": {
                    "type": "string",
                    "title": "id",
                    "thread": 0,
                    "editable": 0
                },
                "post_title": {
                    "type": "string",
                    "title": "Заголовок",
                    "thread": 1,
                    "editable": 1
                },
                "thumbnail": {
                    "type": "media",
                    "title": "Thumbnail",
                    "thread": 1,
                    "editable": 1
                },
                "icon": {
                    "type": "media",
                    "title": "Icon",
                    "thread": 1,
                    "editable": 1
                },
                "post_content": {
                    "type": "text",
                    "title": "Подробное описание",
                    "thread": 0,
                    "editable": 1
                },
                "order": {
                    "type": "int",
                    "title": "Order",
                    "thread": 1,
                    "editable": 1
                },
                "articles": {
                    "title": "Articles",
                    "type": "array",
                    "kind": "type",
                    "component": "Bio_Article",
                    "external_fields": [
                        "id",
                        "post_title",
                        "post_content",
                        "post_date",
                        "parent",
                        "thumbnail_name",
                        "thumbnail"
                    ],
                    "thread": 0,
                    "editable": 0,
                    "hidden": 1
                },
                "bio_test": {
                    "title": "Tests",
                    "type": "array",
                    "kind": "type",
                    "component": "Bio_Test",
                    "external_fields": [
                        "id",
                        "post_title",
                        "post_content",
                        "post_date",
                        "parent",
                        "thumbnail_name",
                        "thumbnail"
                    ],
                    "thread": 0,
                    "editable": 0,
                    "hidden": 1
                }
            },
            "visibled_value": "post_title",
            "name": "Theme",
            "module": "pe-oraculi-module"
        },
        "Bio_Test_Category": {
            "admin_data": {
                "fill": [
                    "#6cc76b",
                    "#539452"
                ]
            },
            "apollo_fields": {
                "id": {
                    "type": "string",
                    "title": "id",
                    "thread": 0,
                    "editable": 0
                },
                "post_title": {
                    "type": "string",
                    "title": "Заголовок",
                    "thread": 1,
                    "editable": 1
                },
                "post_content": {
                    "type": "text",
                    "title": "Подробное описание",
                    "thread": 0,
                    "editable": 1
                }
            },
            "visibled_value": "post_title",
            "name": "Test Category",
            "module": "pe-oraculi-module"
        },
        "Bio_Role_Taxonomy": {
            "admin_data": {
                "fill": [
                    "#B6D94C",
                    "#728C23"
                ]
            },
            "apollo_fields": {
                "id": {
                    "type": "string",
                    "title": "id",
                    "thread": 0,
                    "editable": 0
                },
                "post_title": {
                    "type": "string",
                    "title": "Title",
                    "thread": 1,
                    "editable": 1
                },
                "post_content": {
                    "type": "text",
                    "title": "Content",
                    "thread": 0,
                    "editable": 1
                }
            },
            "visibled_value": "post_title",
            "name": "Role Taxonomy",
            "module": "pe-oraculi-module"
        },
        "Bio_Olimpiad_Type": {
            "admin_data": {
                "fill": [
                    "#ce8c3b",
                    "#ad7734"
                ]
            },
            "apollo_fields": {
                "id": {
                    "type": "string",
                    "title": "id",
                    "thread": 0,
                    "editable": 0
                },
                "post_title": {
                    "type": "string",
                    "title": "Заголовок",
                    "thread": 1,
                    "editable": 1
                },
                "post_content": {
                    "type": "text",
                    "title": "Подробное описание",
                    "thread": 0,
                    "editable": 1
                }
            },
            "visibled_value": "post_title",
            "name": "Olympiad Type",
            "module": "pe-oraculi-module"
        },
        "Bio_Mailing_Group": {
            "admin_data": {
                "fill": [
                    "#B6D94C",
                    "#728C23"
                ]
            },
            "apollo_fields": {
                "id": {
                    "type": "string",
                    "title": "id",
                    "thread": 0,
                    "editable": 0
                },
                "post_title": {
                    "type": "string",
                    "title": "Title",
                    "thread": 1,
                    "editable": 1
                },
                "post_content": {
                    "type": "text",
                    "title": "Description",
                    "thread": 0,
                    "editable": 1
                }
            },
            "visibled_value": "post_title",
            "name": "Mailing Group",
            "module": "pe-oraculi-module"
        },
        "Bio_Article": {
            "admin_data": {
                "filter": {
                    "order_by_meta": {
                        "type": "string",
                        "value": "order"
                    },
                    "order": {
                        "type": "string",
                        "value": "ASC"
                    }
                },
                "fill": [
                    "#41d8a0",
                    "#3abf8e"
                ],
                "__table_type__": "tab",
                "__tab_field__": "bio_course"
            },
            "apollo_fields": {
                "id": {
                    "type": "string",
                    "title": "id",
                    "thread": 0,
                    "editable": 0
                },
                "post_title": {
                    "type": "string",
                    "title": "Title",
                    "thread": 1,
                    "editable": 1
                },
                "post_content": {
                    "type": "text",
                    "title": "Content",
                    "thread": 0,
                    "editable": 1
                },
                "thumbnail": {
                    "type": "media",
                    "title": "Thumbnail",
                    "thread": 0,
                    "editable": 1
                },
                "bio_course": {
                    "type": "array",
                    "kind": "type",
                    "filter_type": "taxonomies",
                    "component": "Bio_Course",
                    "title": "Courses",
                    "external_fields": [
                        "id",
                        "post_title"
                    ],
                    "thread": 1,
                    "editable": 1
                },
                "bio_class": {
                    "type": "array",
                    "kind": "type",
                    "filter_type": "taxonomies",
                    "component": "Bio_Class",
                    "title": "Classes",
                    "external_fields": [
                        "id",
                        "post_title"
                    ],
                    "thread": 1,
                    "editable": 1
                },
                "bio_biology_theme": {
                    "type": "array",
                    "kind": "type",
                    "filter_type": "taxonomies",
                    "component": "Bio_Biology_Theme",
                    "title": "Themes",
                    "external_fields": [
                        "id",
                        "post_title"
                    ],
                    "thread": 1,
                    "editable": 1
                },
                "bio_olimpiad_type": {
                    "type": "array",
                    "kind": "type",
                    "filter_type": "taxonomies",
                    "component": "Bio_Olimpiad_Type",
                    "title": "Olimpiad Types",
                    "external_fields": [
                        "id",
                        "post_title"
                    ],
                    "thread": 0,
                    "editable": 1
                },
                "bio_role_taxonomy": {
                    "type": "array",
                    "kind": "type",
                    "filter_type": "taxonomies",
                    "component": "Bio_Role_Taxonomy",
                    "title": "Role Taxonomies",
                    "external_fields": [
                        "id",
                        "post_title"
                    ],
                    "thread": 0,
                    "editable": 1
                },
                "order": {
                    "type": "int",
                    "title": "Order",
                    "thread": 1,
                    "editable": 1
                },
                "post_date": {
                    "type": "date",
                    "title": "Date",
                    "thread": 0,
                    "editable": 1
                },
                "post_author": {
                    "kind": "type",
                    "type": "external",
                    "component": "User",
                    "title": "Автор",
                    "external_fields": [
                        "id",
                        "display_name"
                    ],
                    "thread": 0,
                    "editable": 1
                },
                "is_favorite": {
                    "type": "boolean",
                    "title": "Is Favorite for current User",
                    "thread": 0,
                    "editable": 0
                },
                "is_member": {
                    "type": "boolean",
                    "title": "Current User is member",
                    "thread": 1,
                    "editable": 0
                },
                "is_free": {
                    "type": "boolean",
                    "filter_type": "meta",
                    "title": "Free content",
                    "thread": 1,
                    "editable": 1
                },
                "is_logged_in": {
                    "type": "boolean",
                    "filter_type": "meta",
                    "title": "Hide for unloggeds",
                    "thread": 1,
                    "editable": 1
                }
            },
            "visibled_value": "post_title",
            "name": "Урок",
            "module": "pe-oraculi-module"
        },
        "Bio_Event": {
            "admin_data": {
                "fill": [
                    "#B6D94C",
                    "#728C23"
                ]
            },
            "apollo_fields": {
                "id": {
                    "type": "string",
                    "title": "id",
                    "thread": 0,
                    "editable": 0
                },
                "post_title": {
                    "type": "string",
                    "title": "Заголовок",
                    "thread": 1,
                    "editable": 1
                },
                "post_content": {
                    "type": "text",
                    "title": "Подробное описание",
                    "thread": 0,
                    "editable": 1
                },
                "bio_course": {
                    "type": "array",
                    "kind": "type",
                    "filter_type": "taxonomies",
                    "component": "Bio_Course",
                    "title": "Course",
                    "external_fields": [
                        "id",
                        "post_title"
                    ],
                    "thread": 1,
                    "editable": 1
                },
                "bio_class": {
                    "type": "array",
                    "kind": "type",
                    "filter_type": "taxonomies",
                    "component": "Bio_Class",
                    "title": "Classes",
                    "external_fields": [
                        "id",
                        "post_title"
                    ],
                    "thread": 1,
                    "editable": 1
                },
                "bio_biology_theme": {
                    "type": "array",
                    "kind": "type",
                    "filter_type": "taxonomies",
                    "component": "Bio_Biology_Theme",
                    "title": "Themes",
                    "external_fields": [
                        "id",
                        "post_title"
                    ],
                    "thread": 1,
                    "editable": 1
                },
                "bio_olimpiad_type": {
                    "type": "array",
                    "kind": "type",
                    "filter_type": "taxonomies",
                    "component": "Bio_Olimpiad_Type",
                    "title": "Olimpiad Types",
                    "external_fields": [
                        "id",
                        "post_title"
                    ],
                    "thread": 1,
                    "editable": 1
                },
                "test_id": {
                    "type": "external",
                    "kind": "type",
                    "filter_type": "meta",
                    "component": "Bio_Test",
                    "title": "Test",
                    "external_fields": [
                        "id",
                        "post_title"
                    ],
                    "thread": 1,
                    "editable": 1
                },
                "time": {
                    "type": "date",
                    "title": "Date",
                    "thread": 1,
                    "editable": 1
                },
                "request_count": {
                    "type": "number",
                    "title": "Request Count",
                    "thread": 0,
                    "editable": 0,
                    "hidden": 1
                },
                "post_author": {
                    "kind": "type",
                    "type": "external",
                    "component": "User",
                    "title": "Автор",
                    "external_fields": [
                        "id",
                        "display_name"
                    ],
                    "thread": 0,
                    "editable": 1
                }
            },
            "visibled_value": "post_title",
            "name": "Event",
            "module": "pe-oraculi-module"
        },
        "Bio_Test": {
            "admin_data": {
                "fill": [
                    "#B6D94C",
                    "#728C23"
                ]
            },
            "apollo_fields": {
                "id": {
                    "type": "string",
                    "title": "id",
                    "thread": 0,
                    "editable": 0
                },
                "post_title": {
                    "type": "string",
                    "title": "Title",
                    "thread": 1,
                    "editable": 1
                },
                "post_content": {
                    "type": "text",
                    "title": "Content",
                    "thread": 0,
                    "editable": 1
                },
                "bio_course": {
                    "type": "array",
                    "kind": "type",
                    "filter_type": "taxonomies",
                    "component": "Bio_Course",
                    "title": "Course",
                    "external_fields": [
                        "id",
                        "post_title"
                    ],
                    "thread": 1,
                    "editable": 1
                },
                "bio_biology_theme": {
                    "type": "array",
                    "kind": "type",
                    "filter_type": "taxonomies",
                    "component": "Bio_Biology_Theme",
                    "title": "Themes",
                    "external_fields": [
                        "id",
                        "post_title"
                    ],
                    "thread": 1,
                    "editable": 1
                },
                "bio_olimpiad_type": {
                    "type": "array",
                    "kind": "type",
                    "filter_type": "taxonomies",
                    "component": "Bio_Olimpiad_Type",
                    "title": "Olimpiad Types",
                    "external_fields": [
                        "id",
                        "post_title"
                    ],
                    "thread": 1,
                    "editable": 1
                },
                "bio_class": {
                    "type": "array",
                    "kind": "type",
                    "filter_type": "taxonomies",
                    "component": "Bio_Class",
                    "title": "Class",
                    "external_fields": [
                        "id",
                        "post_title"
                    ],
                    "thread": 1,
                    "editable": 1
                },
                "bio_test_category": {
                    "type": "array",
                    "kind": "type",
                    "filter_type": "taxonomies",
                    "component": "Bio_Test_Category",
                    "title": "Test Category",
                    "external_fields": [
                        "id",
                        "post_title"
                    ],
                    "thread": 1,
                    "editable": 1
                },
                "is_show_answer": {
                    "type": "boolean",
                    "filter_type": "meta",
                    "title": "Show right answer after choose",
                    "thread": 0,
                    "editable": 1
                },
                "is_show_results": {
                    "type": "boolean",
                    "filter_type": "meta",
                    "title": "Show result after test",
                    "thread": 0,
                    "editable": 1
                },
                "is_shuffle": {
                    "type": "boolean",
                    "filter_type": "meta",
                    "title": "Shuffle Questions?",
                    "thread": 0,
                    "editable": 1
                },
                "is_timed": {
                    "type": "boolean",
                    "filter_type": "meta",
                    "title": "With time limit",
                    "thread": 1,
                    "editable": 1
                },
                "duration": {
                    "type": "int",
                    "title": "Duration per sec",
                    "thread": 1,
                    "editable": 1
                },
                "try_count": {
                    "type": "int",
                    "title": "Try count.",
                    "thread": 1,
                    "editable": 1
                },
                "publish_type": {
                    "type": "radio",
                    "filter_type": "meta",
                    "values": [
                        {
                            "_id": 1,
                            "title": "Standart"
                        },
                        {
                            "_id": 2,
                            "title": "Course Electronic"
                        },
                        {
                            "_id": 3,
                            "title": "Course Intramural"
                        }
                    ],
                    "title": "Publish type",
                    "thread": 1,
                    "editable": 1
                },
                "questions": {
                    "type": "array",
                    "kind": "type",
                    "component": "Bio_TestQuestion",
                    "title": "Questions",
                    "external_fields": [
                        "id",
                        "post_title"
                    ],
                    "thread": 0,
                    "editable": 1,
                    "hidden": 1
                }
            },
            "visibled_value": "post_title",
            "name": "Test",
            "module": "pe-oraculi-module"
        },
        "Bio_TestQuestion": {
            "admin_data": {
                "fill": [
                    "#B6D94C",
                    "#728C23"
                ]
            },
            "apollo_fields": {
                "id": {
                    "type": "string",
                    "title": "id",
                    "thread": 0,
                    "editable": 0
                },
                "post_title": {
                    "type": "string",
                    "title": "Заголовок",
                    "thread": 0,
                    "editable": 0,
                    "hidden": 1
                },
                "thumbnail": {
                    "type": "media",
                    "title": "Thumbnail",
                    "thread": 1,
                    "editable": 1
                },
                "post_content": {
                    "type": "text",
                    "title": "Подробное описание",
                    "thread": 1,
                    "editable": 1
                },
                "answers": {
                    "type": "array",
                    "kind": "type",
                    "component": "Bio_TestQuestionAnswer",
                    "title": "Answers",
                    "external_fields": [
                        "id",
                        "post_content"
                    ],
                    "thread": 0,
                    "editable": 0
                },
                "hidden": {
                    "type": "boolean",
                    "title": "Need approve",
                    "description": "Question wait approve by Administartors and hidden for Pupils (YES) or available add to Test (NO).",
                    "filter_type": "meta",
                    "thread": 1,
                    "editable": 1
                },
                "is_deleted": {
                    "type": "boolean",
                    "title": "Deleted",
                    "thread": 0,
                    "editable": 1,
                    "hidden": 1
                },
                "single": {
                    "type": "boolean",
                    "title": "Need single answer",
                    "filter_type": "meta",
                    "thread": 1,
                    "editable": 1
                },
                "type": {
                    "type": "radio",
                    "title": "Type",
                    "filter_type": "meta",
                    "values": [
                        "multichoice",
                        "truefalse",
                        "matching"
                    ],
                    "thread": 1,
                    "editable": 1
                },
                "penalty": {
                    "type": "String",
                    "title": "penalty",
                    "thread": 1,
                    "editable": 1
                },
                "bio_test": {
                    "type": "array",
                    "kind": "type",
                    "filter_type": "meta",
                    "component": "Bio_Test",
                    "title": "Test",
                    "external_fields": [
                        "id",
                        "post_title"
                    ],
                    "thread": 1,
                    "editable": 1
                },
                "bio_biology_theme": {
                    "kind": "type",
                    "type": "external",
                    "filter_type": "taxonomies",
                    "component": "Bio_Biology_Theme",
                    "title": "Theme",
                    "external_fields": [
                        "id",
                        "post_title"
                    ],
                    "thread": 1,
                    "editable": 1
                },
                "post_author": {
                    "kind": "type",
                    "type": "external",
                    "component": "User",
                    "title": "Автор",
                    "external_fields": [
                        "id",
                        "display_name"
                    ],
                    "thread": 0,
                    "editable": 1
                }
            },
            "visibled_value": "post_title",
            "name": "Test's Question",
            "module": "pe-oraculi-module"
        },
        "Bio_TestQuestionAnswer": {
            "admin_data": {
                "fill": [
                    "#B6D94C",
                    "#728C23"
                ]
            },
            "apollo_fields": {
                "id": {
                    "type": "string",
                    "title": "id",
                    "thread": 0,
                    "editable": 0
                },
                "question_id": {
                    "kind": "type",
                    "type": "external",
                    "component": "Bio_TestQuestion",
                    "title": "Question",
                    "external_fields": [
                        "id",
                        "post_title"
                    ],
                    "thread": 0,
                    "editable": 0
                },
                "is_deleted": {
                    "type": "boolean",
                    "title": "Is deleted",
                    "thread": 0,
                    "editable": 1
                },
                "is_subquestion": {
                    "type": "boolean",
                    "title": "Is subquestion",
                    "thread": 0,
                    "editable": 1
                },
                "subquestion_answer_id": {
                    "type": "string",
                    "title": "corresponding answer's ID",
                    "thread": 0,
                    "editable": 1
                },
                "order": {
                    "type": "number",
                    "title": "Order",
                    "thread": 0,
                    "editable": 1
                },
                "post_content": {
                    "type": "text",
                    "title": "Подробное описание",
                    "thread": 0,
                    "editable": 1
                }
            },
            "visibled_value": "post_content",
            "name": "Test's Question's Answer",
            "module": "pe-oraculi-module"
        },
        "Bio_ImageResult": {
            "admin_data": {
                "fill": [
                    "#394B59",
                    "#30404D"
                ]
            },
            "apollo_fields": {
                "id": {
                    "type": "string",
                    "title": "id",
                    "thread": 0,
                    "editable": 0
                },
                "post_title": {
                    "type": "string",
                    "title": "Заголовок",
                    "thread": 1,
                    "editable": 1
                },
                "post_content": {
                    "type": "text",
                    "title": "Description",
                    "thread": 0,
                    "editable": 1
                },
                "thumbnail_name": {
                    "type": "text",
                    "title": "Название иконки",
                    "thread": 0,
                    "editable": 1,
                    "hidden": 1
                },
                "thumbnail": {
                    "type": "media",
                    "title": "Иконка",
                    "thread": 1,
                    "editable": 1
                },
                "post_author": {
                    "kind": "type",
                    "type": "external",
                    "component": "User",
                    "title": "Автор",
                    "external_fields": [
                        "id",
                        "display_name"
                    ],
                    "thread": 1,
                    "editable": 0
                },
                "bio_facultet": {
                    "kind": "type",
                    "type": "external",
                    "filter_type": "taxonomies",
                    "component": "Bio_Facultet",
                    "external_fields": [
                        "id",
                        "post_title"
                    ],
                    "title": "Facultet",
                    "thread": 1,
                    "editable": 0
                },
                "bio_course": {
                    "type": "external",
                    "kind": "type",
                    "filter_type": "taxonomies",
                    "component": "Bio_Course",
                    "external_fields": [
                        "id",
                        "post_title"
                    ],
                    "title": "Course",
                    "thread": 1,
                    "editable": 0,
                    "hidden": 1
                }
            },
            "visibled_value": "post_title",
            "name": "Result",
            "module": "pe-oraculi-module"
        }
    },
    "routing": {
        "profile": [
            {
                "title": "Favorites",
                "icon": "fas fa-heart",
                "route": "favorites",
                "component": "TutorArticlesFavorite",
                "is_left": 0,
                "module": "pe-oraculi-module"
            },
            {
                "title": "My tests",
                "icon": "fas fa-vial",
                "route": "tests-tesult",
                "component": "TutorUserTestResults",
                "is_left": 0,
                "module": "pe-oraculi-module"
            }
        ],
        "extended_routes": [
            {
                "title": "Facultet",
                "icon": "/assets/img/minimal/033-content writing.svg",
                "route": "facultet",
                "component": "TutorFacultet",
                "is_left": 0,
                "module": "pe-oraculi-module"
            },
            {
                "title": "Image Result",
                "icon": "",
                "route": "result",
                "component": "TutorResult",
                "is_left": 0,
                "module": "pe-oraculi-module"
            },
            {
                "title": "Event",
                "icon": "fas fa-calendar-alt",
                "route": "event",
                "component": "TutorEvent",
                "is_left": 0,
                "module": "pe-oraculi-module"
            },
            {
                "title": "Test",
                "icon": "fas fa-vial",
                "route": "test",
                "component": "TutorTest",
                "is_left": 0,
                "module": "pe-oraculi-module"
            },
            {
                "title": "Course",
                "icon": "",
                "route": "course",
                "component": "TutorCourse",
                "is_left": 0,
                "module": "pe-oraculi-module"
            },
            {
                "title": "Course",
                "icon": "",
                "route": "course-lessons",
                "component": "TutorCourseLessons",
                "is_left": 0,
                "module": "pe-oraculi-module"
            },
            {
                "title": "Theme",
                "icon": "",
                "route": "theme-lessons",
                "component": "TutorThemeLessons",
                "is_left": 0,
                "module": "pe-oraculi-module"
            },
            {
                "title": "Class",
                "icon": "",
                "route": "class-lessons",
                "component": "TutorClassLessons",
                "is_left": 0,
                "module": "pe-oraculi-module"
            },
            {
                "title": "Article",
                "icon": "",
                "route": "article",
                "component": "TutorLesson",
                "is_left": 0,
                "module": "pe-oraculi-module"
            }
        ],
        "menu": [
            {
                "title": "Education",
                "id": "admin",
                "icon": "/assets/img/minimal/049-abc.svg",
                "route": "admin",
                "component": "MainAdminView",
                "is_left": 1,
                "capability": [
                    "administrator"
                ],
                "is_hidden": 1,
                "islogged": 1,
                "children": [
                    {
                        "title": "Facultets",
                        "icon": "/assets/img/minimal/033-content writing.svg",
                        "route": "facultets",
                        "data_type": "Bio_Facultet",
                        "is_left": 1,
                        "capability": [
                            "administrator"
                        ],
                        "islogged": 1,
                        "module": "pe-oraculi-module"
                    },
                    {
                        "title": "Courses",
                        "icon": "/assets/img/minimal/031-add-contact.svg",
                        "route": "categories",
                        "data_type": "Bio_Course",
                        "is_left": 1,
                        "capability": [
                            "administrator"
                        ],
                        "islogged": 1,
                        "module": "pe-oraculi-module"
                    },
                    {
                        "title": "Articles",
                        "icon": "/assets/img/minimal/060-writing.svg",
                        "route": "articles",
                        "data_type": "Bio_Article",
                        "is_left": 1,
                        "capability": [
                            "administrator"
                        ],
                        "islogged": 1,
                        "module": "pe-oraculi-module"
                    },
                    {
                        "title": "Events",
                        "icon": "fas fa-calendar-alt",
                        "route": "events",
                        "data_type": "Bio_Event",
                        "is_left": 1,
                        "capability": [
                            "administrator"
                        ],
                        "islogged": 1,
                        "module": "pe-oraculi-module"
                    },
                    {
                        "title": "Tests",
                        "icon": "/assets/img/minimal/030-done.svg",
                        "route": "tests",
                        "data_type": "Bio_Test",
                        "is_left": 1,
                        "capability": [
                            "administrator"
                        ],
                        "islogged": 1,
                        "children": [
                            {
                                "title": "Questions",
                                "icon": "fas fa-question",
                                "route": "questions",
                                "data_type": "Bio_TestQuestion",
                                "is_left": 1,
                                "capability": [
                                    "administrator"
                                ],
                                "module": "pe-oraculi-module"
                            },
                            {
                                "title": "Test Categories",
                                "icon": "fas fa-vials",
                                "route": "test-categories",
                                "data_type": "Bio_Test_Category",
                                "is_left": 1,
                                "capability": [
                                    "administrator"
                                ],
                                "islogged": 1,
                                "module": "pe-oraculi-module"
                            }
                        ],
                        "module": "pe-oraculi-module"
                    },
                    {
                        "title": "Themes",
                        "icon": "/assets/img/minimal/presentation.svg",
                        "route": "themes",
                        "data_type": "Bio_Biology_Theme",
                        "is_left": 1,
                        "capability": [
                            "administrator"
                        ],
                        "islogged": 1,
                        "module": "pe-oraculi-module"
                    },
                    {
                        "title": "Classes",
                        "icon": "/assets/img/minimal/007-seminar.svg",
                        "route": "classes",
                        "data_type": "Bio_Class",
                        "is_left": 1,
                        "capability": [
                            "administrator"
                        ],
                        "islogged": 1,
                        "module": "pe-oraculi-module"
                    },
                    {
                        "title": "Olimpiad Types",
                        "icon": "/assets/img/minimal/010-idea.svg",
                        "route": "olimpiad-types",
                        "data_type": "Bio_Olimpiad_Type",
                        "is_left": 1,
                        "capability": [
                            "administrator"
                        ],
                        "islogged": 1,
                        "module": "pe-oraculi-module"
                    },
                    {
                        "title": "Comments",
                        "icon": "/assets/img/minimal/033-bubble-chat.svg",
                        "route": "comments",
                        "data_type": "Comment",
                        "capability": [
                            "administrator"
                        ],
                        "islogged": 1,
                        "is_left": 1,
                        "module": "pe-oraculi-module"
                    }
                ],
                "module": "pe-oraculi-module"
            }
        ]
    }
}